transcript
# //  Questa Sim-64
# //  Version 2021.4 linux_x86_64 Oct 13 2021
# //
# //  Copyright 1991-2021 Mentor Graphics Corporation
# //  All Rights Reserved.
# //
# //  QuestaSim and its associated documentation contain trade
# //  secrets and commercial or financial information that are the property of
# //  Mentor Graphics Corporation and are privileged, confidential,
# //  and exempt from disclosure under the Freedom of Information Act,
# //  5 U.S.C. Section 552. Furthermore, this information
# //  is prohibited from disclosure under the Trade Secrets Act,
# //  18 U.S.C. Section 1905.
# //
vsim -voptargs=+acc work.tb_top
# vsim -voptargs="+acc" work.tb_top 
# Start time: 19:26:34 on Mar 07,2026
# ** Note: (vsim-8009) Loading existing optimized design _opt1
# Loading sv_std.std
# Loading work.tb_top(fast)
# Loading work.top(fast)
run -all
# T=0 | state=0 | en=0 tx_req=0 rx_act=0 mode=00 | uart_done=0 i2c_done=0 spi_done=0 | usi_busy=0 engines_off=1 latch_mode=0 uart_en=0 i2c_en=0 spi_en=0
# T=30000 | state=0 | en=1 tx_req=1 rx_act=0 mode=00 | uart_done=0 i2c_done=0 spi_done=0 | usi_busy=0 engines_off=1 latch_mode=0 uart_en=0 i2c_en=0 spi_en=0
# T=35000 | state=1 | en=1 tx_req=1 rx_act=0 mode=00 | uart_done=0 i2c_done=0 spi_done=0 | usi_busy=1 engines_off=1 latch_mode=1 uart_en=0 i2c_en=0 spi_en=0
# T=40000 | state=1 | en=1 tx_req=0 rx_act=0 mode=00 | uart_done=0 i2c_done=0 spi_done=0 | usi_busy=1 engines_off=1 latch_mode=1 uart_en=0 i2c_en=0 spi_en=0
# T=45000 | state=2 | en=1 tx_req=0 rx_act=0 mode=00 | uart_done=0 i2c_done=0 spi_done=0 | usi_busy=1 engines_off=0 latch_mode=0 uart_en=1 i2c_en=0 spi_en=0
# T=50000 | state=2 | en=1 tx_req=0 rx_act=0 mode=00 | uart_done=1 i2c_done=0 spi_done=0 | usi_busy=1 engines_off=0 latch_mode=0 uart_en=1 i2c_en=0 spi_en=0
# T=55000 | state=5 | en=1 tx_req=0 rx_act=0 mode=00 | uart_done=1 i2c_done=0 spi_done=0 | usi_busy=0 engines_off=1 latch_mode=0 uart_en=0 i2c_en=0 spi_en=0
# T=60000 | state=5 | en=0 tx_req=0 rx_act=0 mode=00 | uart_done=0 i2c_done=0 spi_done=0 | usi_busy=0 engines_off=1 latch_mode=0 uart_en=0 i2c_en=0 spi_en=0
# T=65000 | state=0 | en=0 tx_req=0 rx_act=0 mode=00 | uart_done=0 i2c_done=0 spi_done=0 | usi_busy=0 engines_off=1 latch_mode=0 uart_en=0 i2c_en=0 spi_en=0
# T=70000 | state=0 | en=1 tx_req=0 rx_act=1 mode=01 | uart_done=0 i2c_done=0 spi_done=0 | usi_busy=0 engines_off=1 latch_mode=0 uart_en=0 i2c_en=0 spi_en=0
# T=75000 | state=1 | en=1 tx_req=0 rx_act=1 mode=01 | uart_done=0 i2c_done=0 spi_done=0 | usi_busy=1 engines_off=1 latch_mode=1 uart_en=0 i2c_en=0 spi_en=0
# T=80000 | state=1 | en=1 tx_req=0 rx_act=0 mode=01 | uart_done=0 i2c_done=0 spi_done=0 | usi_busy=1 engines_off=1 latch_mode=1 uart_en=0 i2c_en=0 spi_en=0
# T=85000 | state=3 | en=1 tx_req=0 rx_act=0 mode=01 | uart_done=0 i2c_done=0 spi_done=0 | usi_busy=1 engines_off=0 latch_mode=0 uart_en=0 i2c_en=1 spi_en=0
# T=90000 | state=3 | en=1 tx_req=0 rx_act=0 mode=01 | uart_done=0 i2c_done=1 spi_done=0 | usi_busy=1 engines_off=0 latch_mode=0 uart_en=0 i2c_en=1 spi_en=0
# T=95000 | state=5 | en=1 tx_req=0 rx_act=0 mode=01 | uart_done=0 i2c_done=1 spi_done=0 | usi_busy=0 engines_off=1 latch_mode=0 uart_en=0 i2c_en=0 spi_en=0
# T=100000 | state=5 | en=0 tx_req=0 rx_act=0 mode=01 | uart_done=0 i2c_done=0 spi_done=0 | usi_busy=0 engines_off=1 latch_mode=0 uart_en=0 i2c_en=0 spi_en=0
# T=105000 | state=0 | en=0 tx_req=0 rx_act=0 mode=01 | uart_done=0 i2c_done=0 spi_done=0 | usi_busy=0 engines_off=1 latch_mode=0 uart_en=0 i2c_en=0 spi_en=0
# T=110000 | state=0 | en=1 tx_req=1 rx_act=0 mode=10 | uart_done=0 i2c_done=0 spi_done=0 | usi_busy=0 engines_off=1 latch_mode=0 uart_en=0 i2c_en=0 spi_en=0
# T=115000 | state=1 | en=1 tx_req=1 rx_act=0 mode=10 | uart_done=0 i2c_done=0 spi_done=0 | usi_busy=1 engines_off=1 latch_mode=1 uart_en=0 i2c_en=0 spi_en=0
# T=120000 | state=1 | en=1 tx_req=0 rx_act=0 mode=10 | uart_done=0 i2c_done=0 spi_done=0 | usi_busy=1 engines_off=1 latch_mode=1 uart_en=0 i2c_en=0 spi_en=0
# T=125000 | state=4 | en=1 tx_req=0 rx_act=0 mode=10 | uart_done=0 i2c_done=0 spi_done=0 | usi_busy=1 engines_off=0 latch_mode=0 uart_en=0 i2c_en=0 spi_en=1
# T=130000 | state=4 | en=1 tx_req=0 rx_act=0 mode=10 | uart_done=0 i2c_done=0 spi_done=1 | usi_busy=1 engines_off=0 latch_mode=0 uart_en=0 i2c_en=0 spi_en=1
# T=135000 | state=5 | en=1 tx_req=0 rx_act=0 mode=10 | uart_done=0 i2c_done=0 spi_done=1 | usi_busy=0 engines_off=1 latch_mode=0 uart_en=0 i2c_en=0 spi_en=0
# T=140000 | state=5 | en=0 tx_req=0 rx_act=0 mode=10 | uart_done=0 i2c_done=0 spi_done=0 | usi_busy=0 engines_off=1 latch_mode=0 uart_en=0 i2c_en=0 spi_en=0
# T=145000 | state=0 | en=0 tx_req=0 rx_act=0 mode=10 | uart_done=0 i2c_done=0 spi_done=0 | usi_busy=0 engines_off=1 latch_mode=0 uart_en=0 i2c_en=0 spi_en=0
# T=150000 | state=0 | en=1 tx_req=1 rx_act=0 mode=11 | uart_done=0 i2c_done=0 spi_done=0 | usi_busy=0 engines_off=1 latch_mode=0 uart_en=0 i2c_en=0 spi_en=0
# T=155000 | state=1 | en=1 tx_req=1 rx_act=0 mode=11 | uart_done=0 i2c_done=0 spi_done=0 | usi_busy=1 engines_off=1 latch_mode=1 uart_en=0 i2c_en=0 spi_en=0
# T=160000 | state=1 | en=0 tx_req=0 rx_act=0 mode=11 | uart_done=0 i2c_done=0 spi_done=0 | usi_busy=1 engines_off=1 latch_mode=1 uart_en=0 i2c_en=0 spi_en=0
# T=165000 | state=5 | en=0 tx_req=0 rx_act=0 mode=11 | uart_done=0 i2c_done=0 spi_done=0 | usi_busy=0 engines_off=1 latch_mode=0 uart_en=0 i2c_en=0 spi_en=0
# T=175000 | state=0 | en=0 tx_req=0 rx_act=0 mode=11 | uart_done=0 i2c_done=0 spi_done=0 | usi_busy=0 engines_off=1 latch_mode=0 uart_en=0 i2c_en=0 spi_en=0
# ** Note: $finish    : testbench/top_tb.sv(141)
#    Time: 190 ns  Iteration: 1  Instance: /tb_top
# 1
# Break in Module tb_top at testbench/top_tb.sv line 141
add wave  \
sim:/tb_top/dut/state
run -all
run -all
run
run
# Load canceled
restart
# ** Note: (vsim-8009) Loading existing optimized design _opt1
# Loading work.tb_top(fast)
# Loading work.top(fast)
run
# T=0 | state=0 | en=0 tx_req=0 rx_act=0 mode=00 | uart_done=0 i2c_done=0 spi_done=0 | usi_busy=0 engines_off=1 latch_mode=0 uart_en=0 i2c_en=0 spi_en=0
run -all
# T=30000 | state=0 | en=1 tx_req=1 rx_act=0 mode=00 | uart_done=0 i2c_done=0 spi_done=0 | usi_busy=0 engines_off=1 latch_mode=0 uart_en=0 i2c_en=0 spi_en=0
# T=35000 | state=1 | en=1 tx_req=1 rx_act=0 mode=00 | uart_done=0 i2c_done=0 spi_done=0 | usi_busy=1 engines_off=1 latch_mode=1 uart_en=0 i2c_en=0 spi_en=0
# T=40000 | state=1 | en=1 tx_req=0 rx_act=0 mode=00 | uart_done=0 i2c_done=0 spi_done=0 | usi_busy=1 engines_off=1 latch_mode=1 uart_en=0 i2c_en=0 spi_en=0
# T=45000 | state=2 | en=1 tx_req=0 rx_act=0 mode=00 | uart_done=0 i2c_done=0 spi_done=0 | usi_busy=1 engines_off=0 latch_mode=0 uart_en=1 i2c_en=0 spi_en=0
# T=50000 | state=2 | en=1 tx_req=0 rx_act=0 mode=00 | uart_done=1 i2c_done=0 spi_done=0 | usi_busy=1 engines_off=0 latch_mode=0 uart_en=1 i2c_en=0 spi_en=0
# T=55000 | state=5 | en=1 tx_req=0 rx_act=0 mode=00 | uart_done=1 i2c_done=0 spi_done=0 | usi_busy=0 engines_off=1 latch_mode=0 uart_en=0 i2c_en=0 spi_en=0
# T=60000 | state=5 | en=0 tx_req=0 rx_act=0 mode=00 | uart_done=0 i2c_done=0 spi_done=0 | usi_busy=0 engines_off=1 latch_mode=0 uart_en=0 i2c_en=0 spi_en=0
# T=65000 | state=0 | en=0 tx_req=0 rx_act=0 mode=00 | uart_done=0 i2c_done=0 spi_done=0 | usi_busy=0 engines_off=1 latch_mode=0 uart_en=0 i2c_en=0 spi_en=0
# T=70000 | state=0 | en=1 tx_req=0 rx_act=1 mode=01 | uart_done=0 i2c_done=0 spi_done=0 | usi_busy=0 engines_off=1 latch_mode=0 uart_en=0 i2c_en=0 spi_en=0
# T=75000 | state=1 | en=1 tx_req=0 rx_act=1 mode=01 | uart_done=0 i2c_done=0 spi_done=0 | usi_busy=1 engines_off=1 latch_mode=1 uart_en=0 i2c_en=0 spi_en=0
# T=80000 | state=1 | en=1 tx_req=0 rx_act=0 mode=01 | uart_done=0 i2c_done=0 spi_done=0 | usi_busy=1 engines_off=1 latch_mode=1 uart_en=0 i2c_en=0 spi_en=0
# T=85000 | state=3 | en=1 tx_req=0 rx_act=0 mode=01 | uart_done=0 i2c_done=0 spi_done=0 | usi_busy=1 engines_off=0 latch_mode=0 uart_en=0 i2c_en=1 spi_en=0
# T=90000 | state=3 | en=1 tx_req=0 rx_act=0 mode=01 | uart_done=0 i2c_done=1 spi_done=0 | usi_busy=1 engines_off=0 latch_mode=0 uart_en=0 i2c_en=1 spi_en=0
# T=95000 | state=5 | en=1 tx_req=0 rx_act=0 mode=01 | uart_done=0 i2c_done=1 spi_done=0 | usi_busy=0 engines_off=1 latch_mode=0 uart_en=0 i2c_en=0 spi_en=0
# T=100000 | state=5 | en=0 tx_req=0 rx_act=0 mode=01 | uart_done=0 i2c_done=0 spi_done=0 | usi_busy=0 engines_off=1 latch_mode=0 uart_en=0 i2c_en=0 spi_en=0
# T=105000 | state=0 | en=0 tx_req=0 rx_act=0 mode=01 | uart_done=0 i2c_done=0 spi_done=0 | usi_busy=0 engines_off=1 latch_mode=0 uart_en=0 i2c_en=0 spi_en=0
# T=110000 | state=0 | en=1 tx_req=1 rx_act=0 mode=10 | uart_done=0 i2c_done=0 spi_done=0 | usi_busy=0 engines_off=1 latch_mode=0 uart_en=0 i2c_en=0 spi_en=0
# T=115000 | state=1 | en=1 tx_req=1 rx_act=0 mode=10 | uart_done=0 i2c_done=0 spi_done=0 | usi_busy=1 engines_off=1 latch_mode=1 uart_en=0 i2c_en=0 spi_en=0
# T=120000 | state=1 | en=1 tx_req=0 rx_act=0 mode=10 | uart_done=0 i2c_done=0 spi_done=0 | usi_busy=1 engines_off=1 latch_mode=1 uart_en=0 i2c_en=0 spi_en=0
# T=125000 | state=4 | en=1 tx_req=0 rx_act=0 mode=10 | uart_done=0 i2c_done=0 spi_done=0 | usi_busy=1 engines_off=0 latch_mode=0 uart_en=0 i2c_en=0 spi_en=1
# T=130000 | state=4 | en=1 tx_req=0 rx_act=0 mode=10 | uart_done=0 i2c_done=0 spi_done=1 | usi_busy=1 engines_off=0 latch_mode=0 uart_en=0 i2c_en=0 spi_en=1
# T=135000 | state=5 | en=1 tx_req=0 rx_act=0 mode=10 | uart_done=0 i2c_done=0 spi_done=1 | usi_busy=0 engines_off=1 latch_mode=0 uart_en=0 i2c_en=0 spi_en=0
# T=140000 | state=5 | en=0 tx_req=0 rx_act=0 mode=10 | uart_done=0 i2c_done=0 spi_done=0 | usi_busy=0 engines_off=1 latch_mode=0 uart_en=0 i2c_en=0 spi_en=0
# T=145000 | state=0 | en=0 tx_req=0 rx_act=0 mode=10 | uart_done=0 i2c_done=0 spi_done=0 | usi_busy=0 engines_off=1 latch_mode=0 uart_en=0 i2c_en=0 spi_en=0
# T=150000 | state=0 | en=1 tx_req=1 rx_act=0 mode=11 | uart_done=0 i2c_done=0 spi_done=0 | usi_busy=0 engines_off=1 latch_mode=0 uart_en=0 i2c_en=0 spi_en=0
# T=155000 | state=1 | en=1 tx_req=1 rx_act=0 mode=11 | uart_done=0 i2c_done=0 spi_done=0 | usi_busy=1 engines_off=1 latch_mode=1 uart_en=0 i2c_en=0 spi_en=0
# T=160000 | state=1 | en=0 tx_req=0 rx_act=0 mode=11 | uart_done=0 i2c_done=0 spi_done=0 | usi_busy=1 engines_off=1 latch_mode=1 uart_en=0 i2c_en=0 spi_en=0
# T=165000 | state=5 | en=0 tx_req=0 rx_act=0 mode=11 | uart_done=0 i2c_done=0 spi_done=0 | usi_busy=0 engines_off=1 latch_mode=0 uart_en=0 i2c_en=0 spi_en=0
# T=175000 | state=0 | en=0 tx_req=0 rx_act=0 mode=11 | uart_done=0 i2c_done=0 spi_done=0 | usi_busy=0 engines_off=1 latch_mode=0 uart_en=0 i2c_en=0 spi_en=0
# ** Note: $finish    : testbench/top_tb.sv(141)
#    Time: 190 ns  Iteration: 1  Instance: /tb_top
# 1
# Break in Module tb_top at testbench/top_tb.sv line 141
coverage report -html -output covhtmlreport -details -assert -directive -cvg -code bcefst -threshL 50 -threshH 90
